…
```r
bird_calls1 <- tibble::rowid_to_column(bird_calls1, "ID")
bird_calls1
```

```
## # A tibble: 5,197 x 10
##       ID selection view  channel begin_time_s end_time_s low_frequency
##    <int>     <dbl> <chr>   <dbl>        <dbl>      <dbl>         <dbl>
##  1     1         1 Spec…       1        0           1.71         2986.
##  2     2         2 Spec…       1        0.335       1.83         5752.
##  3     3         3 Spec…       1        0.346       1.79            0 
##  4     4         4 Spec…       1        6.85        8.72         4652 
##  5     5         5 Spec…       1        7.52       14.9          2909.
##  6     6         6 Spec…       1       14.1        16.2          4863.
##  7     7         7 Spec…       1       18.4        23.6          2597.
##  8     8         8 Spec…       1       20.1        21.9          5958 
##  9     9         9 Spec…       1       26.7        29.0          3489 
## 10    10        10 Spec…       1       33.6        36.2          4969.
## # … with 5,187 more rows, and 3 more variables: high_frequency <dbl>,
## #   sound_category <chr>, additional_information <chr>
```






```r
bird_calls <- 
  bird_calls1 %>% 
  select(ID, view, channel, begin_time_s, end_time_s, low_frequency, high_frequency, sound_category)
bird_calls
```

```
## # A tibble: 5,197 x 8
##       ID view  channel begin_time_s end_time_s low_frequency high_frequency
##    <int> <chr>   <dbl>        <dbl>      <dbl>         <dbl>          <dbl>
##  1     1 Spec…       1        0           1.71         2986.          5696.
##  2     2 Spec…       1        0.335       1.83         5752.         15119.
##  3     3 Spec…       1        0.346       1.79            0           3574.
##  4     4 Spec…       1        6.85        8.72         4652          13639.
##  5     5 Spec…       1        7.52       14.9          2909.          5677.
##  6     6 Spec…       1       14.1        16.2          4863.         13216.
##  7     7 Spec…       1       18.4        23.6          2597.          5677.
##  8     8 Spec…       1       20.1        21.9          5958          13427.
##  9     9 Spec…       1       26.7        29.0          3489          14273.
## 10    10 Spec…       1       33.6        36.2          4969.         13110.
## # … with 5,187 more rows, and 1 more variable: sound_category <chr>
```



```r
bird_calls <- 
  bird_calls %>% 
  gather(low_frequency, high_frequency, 
         key= "frequency_type", 
         value= "frequency_Hz") %>% 
  arrange(ID) 
bird_calls
```

```
## # A tibble: 10,394 x 8
##       ID view  channel begin_time_s end_time_s sound_category
##    <int> <chr>   <dbl>        <dbl>      <dbl> <chr>         
##  1     1 Spec…       1        0           1.71 Bird          
##  2     1 Spec…       1        0           1.71 Bird          
##  3     2 Spec…       1        0.335       1.83 Other animal  
##  4     2 Spec…       1        0.335       1.83 Other animal  
##  5     3 Spec…       1        0.346       1.79 Buzz          
##  6     3 Spec…       1        0.346       1.79 Buzz          
##  7     4 Spec…       1        6.85        8.72 Other animal  
##  8     4 Spec…       1        6.85        8.72 Other animal  
##  9     5 Spec…       1        7.52       14.9  Bird          
## 10     5 Spec…       1        7.52       14.9  Bird          
## # … with 10,384 more rows, and 2 more variables: frequency_type <chr>,
## #   frequency_Hz <dbl>
```




```r
bird_calls <- 
  bird_calls %>% 
  mutate(call_duration_s=end_time_s-begin_time_s) %>% 
  select(ID, view, channel, begin_time_s, end_time_s, call_duration_s, frequency_type,frequency_Hz, sound_category) 
   
bird_calls
```

```
## # A tibble: 10,394 x 9
##       ID view  channel begin_time_s end_time_s call_duration_s
##    <int> <chr>   <dbl>        <dbl>      <dbl>           <dbl>
##  1     1 Spec…       1        0           1.71            1.71
##  2     1 Spec…       1        0           1.71            1.71
##  3     2 Spec…       1        0.335       1.83            1.49
##  4     2 Spec…       1        0.335       1.83            1.49
##  5     3 Spec…       1        0.346       1.79            1.44
##  6     3 Spec…       1        0.346       1.79            1.44
##  7     4 Spec…       1        6.85        8.72            1.87
##  8     4 Spec…       1        6.85        8.72            1.87
##  9     5 Spec…       1        7.52       14.9             7.42
## 10     5 Spec…       1        7.52       14.9             7.42
## # … with 10,384 more rows, and 3 more variables: frequency_type <chr>,
## #   frequency_Hz <dbl>, sound_category <chr>
```
…
