…
```
## ── Conflicts ────────────────────────────────────────────────────────────────────── tidyverse_conflicts() ──
## ✖ dplyr::filter() masks stats::filter()
## ✖ dplyr::lag()    masks stats::lag()
```

## Mammals Sleep
For this assignment, we are going to use built-in data on mammal sleep patterns.  

```r
msleep
```

```
## # A tibble: 83 x 11
##    name  genus vore  order conservation sleep_total sleep_rem sleep_cycle
##    <chr> <chr> <chr> <chr> <chr>              <dbl>     <dbl>       <dbl>
##  1 Chee… Acin… carni Carn… lc                  12.1      NA        NA    
##  2 Owl … Aotus omni  Prim… <NA>                17         1.8      NA    
##  3 Moun… Aplo… herbi Rode… nt                  14.4       2.4      NA    
##  4 Grea… Blar… omni  Sori… lc                  14.9       2.3       0.133
##  5 Cow   Bos   herbi Arti… domesticated         4         0.7       0.667
##  6 Thre… Brad… herbi Pilo… <NA>                14.4       2.2       0.767
##  7 Nort… Call… carni Carn… vu                   8.7       1.4       0.383
##  8 Vesp… Calo… <NA>  Rode… <NA>                 7        NA        NA    
##  9 Dog   Canis carni Carn… domesticated        10.1       2.9       0.333
## 10 Roe … Capr… herbi Arti… lc                   3        NA        NA    
## # … with 73 more rows, and 3 more variables: awake <dbl>, brainwt <dbl>,
## #   bodywt <dbl>
```
…
3. Make a new data frame focused on body weight, but be sure to indicate the common name and genus of each mammal. Sort the data in descending order by body weight.

```r
New_data <- select(msleep, genus, name, bodywt) %>% 
  arrange(desc(bodywt))
New_data
```

```
## # A tibble: 83 x 3
##    genus         name                 bodywt
##    <chr>         <chr>                 <dbl>
##  1 Loxodonta     African elephant      6654 
##  2 Elephas       Asian elephant        2547 
##  3 Giraffa       Giraffe                900.
##  4 Globicephalus Pilot whale            800 
##  5 Bos           Cow                    600 
##  6 Equus         Horse                  521 
##  7 Tapirus       Brazilian tapir        208.
##  8 Equus         Donkey                 187 
##  9 Tursiops      Bottle-nosed dolphin   173.
## 10 Panthera      Tiger                  163.
## # … with 73 more rows
```



4. We are interested in two groups; small and large mammals. Let's define small as less than or equal to 1kg body weight and large as greater than or equal to 200kg body weight. For our study, we are interested in body weight and sleep total Make two new dataframes (large and small) based on these parameters. Sort the data in descending order by body weight.

```r
Small_mammals <- select( msleep, genus, name, bodywt, sleep_total) %>% 
  filter(bodywt<=1) %>% 
  arrange(desc(bodywt))
Small_mammals
```

```
## # A tibble: 36 x 4
##    genus        name                      bodywt sleep_total
##    <chr>        <chr>                      <dbl>       <dbl>
##  1 Cricetomys   African giant pouched rat  1             8.3
##  2 Spermophilus Arctic ground squirrel     0.92         16.6
##  3 Tenrec       Tenrec                     0.9          15.6
##  4 Erinaceus    European hedgehog          0.77         10.1
##  5 Saimiri      Squirrel monkey            0.743         9.6
##  6 Cavis        Guinea pig                 0.728         9.4
##  7 Paraechinus  Desert hedgehog            0.55         10.3
##  8 Aotus        Owl monkey                 0.48         17  
##  9 Chinchilla   Chinchilla                 0.42         12.5
## 10 Lutreolina   Thick-tailed opposum       0.37         19.4
## # … with 26 more rows
```
…
