…
```r
fisheries <- 
fisheries %>% 
  rename(country= Country..Country., commname= Species..ASFIS.species., sciname= Species..ASFIS.species._2, spcode= Species..ASFIS.species._1, spgroup= Species..ISSCAAP.group. , spgroupname= Species..ISSCAAP.group._1, region= Fishing.area..FAO.major.fishing.area., unit= Measure..Measure.)
fisheries
```

```
## # A tibble: 17,692 x 71
##    country commname spgroup spgroupname spcode sciname region unit  X1950
##    <chr>   <chr>      <dbl> <chr>       <chr>  <chr>    <dbl> <chr> <chr>
##  1 Albania Angelsh…      38 Sharks, ra… 10903… Squati…     37 Quan… ...  
##  2 Albania Atlanti…      36 Tunas, bon… 17501… Sarda …     37 Quan… ...  
##  3 Albania Barracu…      37 Miscellane… 17710… Sphyra…     37 Quan… ...  
##  4 Albania Blue an…      45 Shrimps, p… 22802… Ariste…     37 Quan… ...  
##  5 Albania Blue wh…      32 Cods, hake… 14804… Microm…     37 Quan… ...  
##  6 Albania Bluefish      37 Miscellane… 17020… Pomato…     37 Quan… ...  
##  7 Albania Bogue         33 Miscellane… 17039… Boops …     37 Quan… ...  
##  8 Albania Caramot…      45 Shrimps, p… 22801… Penaeu…     37 Quan… ...  
##  9 Albania Catshar…      38 Sharks, ra… 10801… Scylio…     37 Quan… ...  
## 10 Albania Common …      57 Squids, cu… 32102… Sepia …     37 Quan… ...  
## # … with 17,682 more rows, and 62 more variables: X1951 <chr>,
## #   X1952 <chr>, X1953 <chr>, X1954 <chr>, X1955 <chr>, X1956 <chr>,
## #   X1957 <chr>, X1958 <chr>, X1959 <chr>, X1960 <chr>, X1961 <chr>,
## #   X1962 <chr>, X1963 <chr>, X1964 <chr>, X1965 <chr>, X1966 <chr>,
## #   X1967 <chr>, X1968 <chr>, X1969 <chr>, X1970 <chr>, X1971 <chr>,
## #   X1972 <chr>, X1973 <chr>, X1974 <chr>, X1975 <chr>, X1976 <chr>,
## #   X1977 <chr>, X1978 <chr>, X1979 <chr>, X1980 <chr>, X1981 <chr>,
## #   X1982 <chr>, X1983 <chr>, X1984 <chr>, X1985 <chr>, X1986 <chr>,
## #   X1987 <chr>, X1988 <chr>, X1989 <chr>, X1990 <chr>, X1991 <chr>,
…
4. Are these data tidy? Why or why not, and, how do you know?
These data is not tidy yet because the years are separate vectors that have no data in them. They should be one vector, and the years are the data.

5. We need to tidy the data using `gather()`. The code below will not run because it is commented (#) out. I have added a bit of code that will prevent you from needing to type in each year from 1950-2012 but you need to complete the remainder `QQQ` and remove the `#`.

```r
fisheries_tidy <- 
  fisheries %>% 
 gather(num_range('X',1950:2012), key= "year", value="catch")
fisheries
```

```
## # A tibble: 17,692 x 71
##    country commname spgroup spgroupname spcode sciname region unit  X1950
##    <chr>   <chr>      <dbl> <chr>       <chr>  <chr>    <dbl> <chr> <chr>
##  1 Albania Angelsh…      38 Sharks, ra… 10903… Squati…     37 Quan… ...  
##  2 Albania Atlanti…      36 Tunas, bon… 17501… Sarda …     37 Quan… ...  
##  3 Albania Barracu…      37 Miscellane… 17710… Sphyra…     37 Quan… ...  
##  4 Albania Blue an…      45 Shrimps, p… 22802… Ariste…     37 Quan… ...  
##  5 Albania Blue wh…      32 Cods, hake… 14804… Microm…     37 Quan… ...  
##  6 Albania Bluefish      37 Miscellane… 17020… Pomato…     37 Quan… ...  
##  7 Albania Bogue         33 Miscellane… 17039… Boops …     37 Quan… ...  
##  8 Albania Caramot…      45 Shrimps, p… 22801… Penaeu…     37 Quan… ...  
##  9 Albania Catshar…      38 Sharks, ra… 10801… Scylio…     37 Quan… ...  
## 10 Albania Common …      57 Squids, cu… 32102… Sepia …     37 Quan… ...  
## # … with 17,682 more rows, and 62 more variables: X1951 <chr>,
## #   X1952 <chr>, X1953 <chr>, X1954 <chr>, X1955 <chr>, X1956 <chr>,
## #   X1957 <chr>, X1958 <chr>, X1959 <chr>, X1960 <chr>, X1961 <chr>,
## #   X1962 <chr>, X1963 <chr>, X1964 <chr>, X1965 <chr>, X1966 <chr>,
## #   X1967 <chr>, X1968 <chr>, X1969 <chr>, X1970 <chr>, X1971 <chr>,
## #   X1972 <chr>, X1973 <chr>, X1974 <chr>, X1975 <chr>, X1976 <chr>,
## #   X1977 <chr>, X1978 <chr>, X1979 <chr>, X1980 <chr>, X1981 <chr>,
## #   X1982 <chr>, X1983 <chr>, X1984 <chr>, X1985 <chr>, X1986 <chr>,
## #   X1987 <chr>, X1988 <chr>, X1989 <chr>, X1990 <chr>, X1991 <chr>,
…
```
## Warning in evalq(as.numeric(str_replace(catch, c(" F", "...", "-"),
## replacement = "")), : NAs introduced by coercion
```


```r
fisheries_tidy
```

```
## # A tibble: 1,114,596 x 10
##    country commname spgroup spgroupname spcode sciname region unit   year
##    <chr>   <chr>      <dbl> <chr>       <chr>  <chr>    <dbl> <chr> <dbl>
##  1 Albania Angelsh…      38 Sharks, ra… 10903… Squati…     37 Quan…  1950
##  2 Albania Atlanti…      36 Tunas, bon… 17501… Sarda …     37 Quan…  1950
##  3 Albania Barracu…      37 Miscellane… 17710… Sphyra…     37 Quan…  1950
##  4 Albania Blue an…      45 Shrimps, p… 22802… Ariste…     37 Quan…  1950
##  5 Albania Blue wh…      32 Cods, hake… 14804… Microm…     37 Quan…  1950
##  6 Albania Bluefish      37 Miscellane… 17020… Pomato…     37 Quan…  1950
##  7 Albania Bogue         33 Miscellane… 17039… Boops …     37 Quan…  1950
##  8 Albania Caramot…      45 Shrimps, p… 22801… Penaeu…     37 Quan…  1950
##  9 Albania Catshar…      38 Sharks, ra… 10801… Scylio…     37 Quan…  1950
## 10 Albania Common …      57 Squids, cu… 32102… Sepia …     37 Quan…  1950
## # … with 1,114,586 more rows, and 1 more variable: catch <dbl>
```
…
```r
fisheries_tidy %>% 
  select(country, spgroupname,commname, year, catch) %>%
  filter(year== 2008:2012, spgroupname== "Squids, cuttlefishes, octopuses") %>% 
  arrange(desc(catch))
```

```
## Warning in year == 2008:2012: longer object length is not a multiple of
## shorter object length
```

```
## # A tibble: 745 x 5
##    country          spgroupname             commname            year  catch
##    <chr>            <chr>                   <chr>              <dbl>  <dbl>
##  1 Peru             Squids, cuttlefishes, … Jumbo flying squid  2011 404730
##  2 Japan            Squids, cuttlefishes, … Japanese flying s…  2009 218658
##  3 Chile            Squids, cuttlefishes, … Jumbo flying squid  2011 163495
##  4 China            Squids, cuttlefishes, … Jumbo flying squid  2010 142000
##  5 India            Squids, cuttlefishes, … Cephalopods nei     2012  82456
##  6 Russian Federat… Squids, cuttlefishes, … Schoolmaster gona…  2011  67678
##  7 Falkland Is.(Ma… Squids, cuttlefishes, … Patagonian squid    2012  64241
##  8 China            Squids, cuttlefishes, … Argentine shortfi…  2009  61400
##  9 Indonesia        Squids, cuttlefishes, … Common squids nei   2008  49565
## 10 Mexico           Squids, cuttlefishes, … Jumbo flying squid  2010  42893
## # … with 735 more rows
```
…
```
## Warning in year == 2008:2012: longer object length is not a multiple of
## shorter object length
```

```r
cuttle
```

```
## # A tibble: 21 x 5
##    country  commname          sciname            year catch
##    <chr>    <chr>             <chr>             <dbl> <dbl>
##  1 France   Common cuttlefish Sepia officinalis  2009  8076
##  2 Tunisia  Common cuttlefish Sepia officinalis  2009  3924
##  3 Spain    Common cuttlefish Sepia officinalis  2012  1685
##  4 Greece   Common cuttlefish Sepia officinalis  2009  1493
##  5 Algeria  Common cuttlefish Sepia officinalis  2010   291
##  6 Croatia  Common cuttlefish Sepia officinalis  2011   105
##  7 Portugal Common cuttlefish Sepia officinalis  2008    74
##  8 France   Common cuttlefish Sepia officinalis  2008    67
##  9 Albania  Common cuttlefish Sepia officinalis  2008    62
## 10 Greece   Common cuttlefish Sepia officinalis  2010    57
## # … with 11 more rows
```
…
