…
6. Which cities in California have the highest number of colleges?
##Los Angeles


```r
colleges %>% 
  select(CITY, INSTNM) %>% 
  count(CITY) %>% 
  arrange(desc(n))
```

```
## # A tibble: 161 x 2
##    CITY              n
##    <chr>         <int>
##  1 Los Angeles      24
##  2 San Diego        18
##  3 San Francisco    15
##  4 Sacramento       10
##  5 Berkeley          9
##  6 Oakland           9
##  7 Claremont         7
##  8 Pasadena          6
##  9 Fresno            5
## 10 Irvine            5
## # … with 151 more rows
```
  
  

7. The column `COSTT4_A` is the annual cost of each institution. Which city has the highest cost?
##Claremont

```r
colleges %>% 
  select(CITY, COSTT4_A) %>% 
  arrange(desc(COSTT4_A))
```

```
## # A tibble: 341 x 2
##    CITY          COSTT4_A
##    <chr>            <dbl>
##  1 Claremont        69355
##  2 Los Angeles      67225
##  3 Los Angeles      67064
##  4 Los Angeles      67046
##  5 Claremont        66325
##  6 Malibu           66152
##  7 Claremont        66060
##  8 Claremont        65880
##  9 San Francisco    65453
## 10 Claremont        64870
## # … with 331 more rows
```
…
